-- Merging decision tree log ---
manifest
ADDED from /Users/izhang/Desktop/Programming Work/CampusLanguageConnection/app/src/main/AndroidManifest.xml:2:1-56:12
	xmlns:tools
		ADDED from /Users/izhang/Desktop/Programming Work/CampusLanguageConnection/app/src/main/AndroidManifest.xml:3:5-51
	xmlns:android
		ADDED from /Users/izhang/Desktop/Programming Work/CampusLanguageConnection/app/src/main/AndroidManifest.xml:2:11-69
	package
		ADDED from /Users/izhang/Desktop/Programming Work/CampusLanguageConnection/app/src/main/AndroidManifest.xml:4:5-58
		INJECTED from /Users/izhang/Desktop/Programming Work/CampusLanguageConnection/app/src/main/AndroidManifest.xml
		INJECTED from /Users/izhang/Desktop/Programming Work/CampusLanguageConnection/app/src/main/AndroidManifest.xml
	android:versionName
		INJECTED from /Users/izhang/Desktop/Programming Work/CampusLanguageConnection/app/src/main/AndroidManifest.xml
		INJECTED from /Users/izhang/Desktop/Programming Work/CampusLanguageConnection/app/src/main/AndroidManifest.xml
	android:versionCode
		INJECTED from /Users/izhang/Desktop/Programming Work/CampusLanguageConnection/app/src/main/AndroidManifest.xml
		INJECTED from /Users/izhang/Desktop/Programming Work/CampusLanguageConnection/app/src/main/AndroidManifest.xml
uses-permission#android.permission.INTERNET
ADDED from /Users/izhang/Desktop/Programming Work/CampusLanguageConnection/app/src/main/AndroidManifest.xml:6:5-67
	android:name
		ADDED from /Users/izhang/Desktop/Programming Work/CampusLanguageConnection/app/src/main/AndroidManifest.xml:6:22-64
uses-permission#android.permission.ACCESS_NETWORK_STATE
ADDED from /Users/izhang/Desktop/Programming Work/CampusLanguageConnection/app/src/main/AndroidManifest.xml:7:5-79
	android:name
		ADDED from /Users/izhang/Desktop/Programming Work/CampusLanguageConnection/app/src/main/AndroidManifest.xml:7:22-76
uses-feature#android.hardware.camera
ADDED from /Users/izhang/Desktop/Programming Work/CampusLanguageConnection/app/src/main/AndroidManifest.xml:8:5-9:35
	android:required
		ADDED from /Users/izhang/Desktop/Programming Work/CampusLanguageConnection/app/src/main/AndroidManifest.xml:9:9-32
	android:name
		ADDED from /Users/izhang/Desktop/Programming Work/CampusLanguageConnection/app/src/main/AndroidManifest.xml:8:19-57
application
ADDED from /Users/izhang/Desktop/Programming Work/CampusLanguageConnection/app/src/main/AndroidManifest.xml:11:5-54:19
MERGED from [com.android.support:appcompat-v7:23.1.1] /Users/izhang/Desktop/Programming Work/CampusLanguageConnection/app/build/intermediates/exploded-aar/com.android.support/appcompat-v7/23.1.1/AndroidManifest.xml:22:5-20
MERGED from [com.android.support:support-v4:23.1.1] /Users/izhang/Desktop/Programming Work/CampusLanguageConnection/app/build/intermediates/exploded-aar/com.android.support/support-v4/23.1.1/AndroidManifest.xml:22:5-20
MERGED from [com.android.support:support-v4:23.1.1] /Users/izhang/Desktop/Programming Work/CampusLanguageConnection/app/build/intermediates/exploded-aar/com.android.support/support-v4/23.1.1/AndroidManifest.xml:22:5-20
MERGED from [com.android.support:design:23.1.1] /Users/izhang/Desktop/Programming Work/CampusLanguageConnection/app/build/intermediates/exploded-aar/com.android.support/design/23.1.1/AndroidManifest.xml:22:5-20
MERGED from [com.android.support:appcompat-v7:23.1.1] /Users/izhang/Desktop/Programming Work/CampusLanguageConnection/app/build/intermediates/exploded-aar/com.android.support/appcompat-v7/23.1.1/AndroidManifest.xml:22:5-20
MERGED from [com.android.support:support-v4:23.1.1] /Users/izhang/Desktop/Programming Work/CampusLanguageConnection/app/build/intermediates/exploded-aar/com.android.support/support-v4/23.1.1/AndroidManifest.xml:22:5-20
MERGED from [com.android.support:support-v4:23.1.1] /Users/izhang/Desktop/Programming Work/CampusLanguageConnection/app/build/intermediates/exploded-aar/com.android.support/support-v4/23.1.1/AndroidManifest.xml:22:5-20
MERGED from [com.android.support:support-v4:23.1.1] /Users/izhang/Desktop/Programming Work/CampusLanguageConnection/app/build/intermediates/exploded-aar/com.android.support/support-v4/23.1.1/AndroidManifest.xml:22:5-20
MERGED from [CampusLanguageConnection:andtinder:unspecified] /Users/izhang/Desktop/Programming Work/CampusLanguageConnection/app/build/intermediates/exploded-aar/CampusLanguageConnection/andtinder/unspecified/AndroidManifest.xml:11:5-14:19
	android:supportsRtl
		ADDED from /Users/izhang/Desktop/Programming Work/CampusLanguageConnection/app/src/main/AndroidManifest.xml:15:9-35
	android:label
		ADDED from /Users/izhang/Desktop/Programming Work/CampusLanguageConnection/app/src/main/AndroidManifest.xml:14:9-28
		REJECTED from [CampusLanguageConnection:andtinder:unspecified] /Users/izhang/Desktop/Programming Work/CampusLanguageConnection/app/build/intermediates/exploded-aar/CampusLanguageConnection/andtinder/unspecified/AndroidManifest.xml:13:9-41
	android:allowBackup
		ADDED from /Users/izhang/Desktop/Programming Work/CampusLanguageConnection/app/src/main/AndroidManifest.xml:12:9-35
	android:icon
		ADDED from /Users/izhang/Desktop/Programming Work/CampusLanguageConnection/app/src/main/AndroidManifest.xml:13:9-49
		REJECTED from [CampusLanguageConnection:andtinder:unspecified] /Users/izhang/Desktop/Programming Work/CampusLanguageConnection/app/build/intermediates/exploded-aar/CampusLanguageConnection/andtinder/unspecified/AndroidManifest.xml:12:9-45
	android:theme
		ADDED from /Users/izhang/Desktop/Programming Work/CampusLanguageConnection/app/src/main/AndroidManifest.xml:16:9-40
	tools:replace
		ADDED from /Users/izhang/Desktop/Programming Work/CampusLanguageConnection/app/src/main/AndroidManifest.xml:17:9-65
activity#com.example.izhang.campuslanguageconnection.HomePage
ADDED from /Users/izhang/Desktop/Programming Work/CampusLanguageConnection/app/src/main/AndroidManifest.xml:20:9-23:20
	android:screenOrientation
		ADDED from /Users/izhang/Desktop/Programming Work/CampusLanguageConnection/app/src/main/AndroidManifest.xml:22:13-49
	android:name
		ADDED from /Users/izhang/Desktop/Programming Work/CampusLanguageConnection/app/src/main/AndroidManifest.xml:21:13-37
activity#com.example.izhang.campuslanguageconnection.LoadingPage
ADDED from /Users/izhang/Desktop/Programming Work/CampusLanguageConnection/app/src/main/AndroidManifest.xml:26:9-35:20
	android:screenOrientation
		ADDED from /Users/izhang/Desktop/Programming Work/CampusLanguageConnection/app/src/main/AndroidManifest.xml:28:13-49
	android:theme
		ADDED from /Users/izhang/Desktop/Programming Work/CampusLanguageConnection/app/src/main/AndroidManifest.xml:29:13-63
	android:name
		ADDED from /Users/izhang/Desktop/Programming Work/CampusLanguageConnection/app/src/main/AndroidManifest.xml:27:13-40
intent-filter#android.intent.action.MAIN+android.intent.category.LAUNCHER
ADDED from /Users/izhang/Desktop/Programming Work/CampusLanguageConnection/app/src/main/AndroidManifest.xml:30:13-34:29
action#android.intent.action.MAIN
ADDED from /Users/izhang/Desktop/Programming Work/CampusLanguageConnection/app/src/main/AndroidManifest.xml:31:17-69
	android:name
		ADDED from /Users/izhang/Desktop/Programming Work/CampusLanguageConnection/app/src/main/AndroidManifest.xml:31:25-66
category#android.intent.category.LAUNCHER
ADDED from /Users/izhang/Desktop/Programming Work/CampusLanguageConnection/app/src/main/AndroidManifest.xml:33:17-77
	android:name
		ADDED from /Users/izhang/Desktop/Programming Work/CampusLanguageConnection/app/src/main/AndroidManifest.xml:33:27-74
activity#com.example.izhang.campuslanguageconnection.LoginPage
ADDED from /Users/izhang/Desktop/Programming Work/CampusLanguageConnection/app/src/main/AndroidManifest.xml:38:9-42:20
	android:screenOrientation
		ADDED from /Users/izhang/Desktop/Programming Work/CampusLanguageConnection/app/src/main/AndroidManifest.xml:40:13-49
	android:theme
		ADDED from /Users/izhang/Desktop/Programming Work/CampusLanguageConnection/app/src/main/AndroidManifest.xml:41:13-63
	android:name
		ADDED from /Users/izhang/Desktop/Programming Work/CampusLanguageConnection/app/src/main/AndroidManifest.xml:39:13-38
activity#com.example.izhang.campuslanguageconnection.CreateAccount
ADDED from /Users/izhang/Desktop/Programming Work/CampusLanguageConnection/app/src/main/AndroidManifest.xml:45:9-49:20
	android:screenOrientation
		ADDED from /Users/izhang/Desktop/Programming Work/CampusLanguageConnection/app/src/main/AndroidManifest.xml:47:13-49
	android:theme
		ADDED from /Users/izhang/Desktop/Programming Work/CampusLanguageConnection/app/src/main/AndroidManifest.xml:48:13-63
	android:name
		ADDED from /Users/izhang/Desktop/Programming Work/CampusLanguageConnection/app/src/main/AndroidManifest.xml:46:13-42
activity#com.example.izhang.campuslanguageconnection.VerifyEmail
ADDED from /Users/izhang/Desktop/Programming Work/CampusLanguageConnection/app/src/main/AndroidManifest.xml:50:9-53:20
	android:theme
		ADDED from /Users/izhang/Desktop/Programming Work/CampusLanguageConnection/app/src/main/AndroidManifest.xml:52:13-63
	android:name
		ADDED from /Users/izhang/Desktop/Programming Work/CampusLanguageConnection/app/src/main/AndroidManifest.xml:51:13-40
uses-sdk
INJECTED from /Users/izhang/Desktop/Programming Work/CampusLanguageConnection/app/src/main/AndroidManifest.xml reason: use-sdk injection requested
MERGED from [com.android.support:appcompat-v7:23.1.1] /Users/izhang/Desktop/Programming Work/CampusLanguageConnection/app/build/intermediates/exploded-aar/com.android.support/appcompat-v7/23.1.1/AndroidManifest.xml:20:5-43
MERGED from [com.android.support:support-v4:23.1.1] /Users/izhang/Desktop/Programming Work/CampusLanguageConnection/app/build/intermediates/exploded-aar/com.android.support/support-v4/23.1.1/AndroidManifest.xml:20:5-43
MERGED from [com.android.support:support-v4:23.1.1] /Users/izhang/Desktop/Programming Work/CampusLanguageConnection/app/build/intermediates/exploded-aar/com.android.support/support-v4/23.1.1/AndroidManifest.xml:20:5-43
MERGED from [com.android.support:design:23.1.1] /Users/izhang/Desktop/Programming Work/CampusLanguageConnection/app/build/intermediates/exploded-aar/com.android.support/design/23.1.1/AndroidManifest.xml:20:5-43
MERGED from [com.android.support:appcompat-v7:23.1.1] /Users/izhang/Desktop/Programming Work/CampusLanguageConnection/app/build/intermediates/exploded-aar/com.android.support/appcompat-v7/23.1.1/AndroidManifest.xml:20:5-43
MERGED from [com.android.support:support-v4:23.1.1] /Users/izhang/Desktop/Programming Work/CampusLanguageConnection/app/build/intermediates/exploded-aar/com.android.support/support-v4/23.1.1/AndroidManifest.xml:20:5-43
MERGED from [com.android.support:recyclerview-v7:23.1.1] /Users/izhang/Desktop/Programming Work/CampusLanguageConnection/app/build/intermediates/exploded-aar/com.android.support/recyclerview-v7/23.1.1/AndroidManifest.xml:20:5-43
MERGED from [com.android.support:support-v4:23.1.1] /Users/izhang/Desktop/Programming Work/CampusLanguageConnection/app/build/intermediates/exploded-aar/com.android.support/support-v4/23.1.1/AndroidManifest.xml:20:5-43
MERGED from [com.android.support:support-v4:23.1.1] /Users/izhang/Desktop/Programming Work/CampusLanguageConnection/app/build/intermediates/exploded-aar/com.android.support/support-v4/23.1.1/AndroidManifest.xml:20:5-43
MERGED from [CampusLanguageConnection:andtinder:unspecified] /Users/izhang/Desktop/Programming Work/CampusLanguageConnection/app/build/intermediates/exploded-aar/CampusLanguageConnection/andtinder/unspecified/AndroidManifest.xml:7:5-9:41
	android:targetSdkVersion
		INJECTED from /Users/izhang/Desktop/Programming Work/CampusLanguageConnection/app/src/main/AndroidManifest.xml
		INJECTED from /Users/izhang/Desktop/Programming Work/CampusLanguageConnection/app/src/main/AndroidManifest.xml
	android:minSdkVersion
		INJECTED from /Users/izhang/Desktop/Programming Work/CampusLanguageConnection/app/src/main/AndroidManifest.xml
		INJECTED from /Users/izhang/Desktop/Programming Work/CampusLanguageConnection/app/src/main/AndroidManifest.xml
